[gd_scene load_steps=5 format=2]

[ext_resource path="res://entities/bullets/heal_bullet/HealBullet.gd" type="Script" id=1]
[ext_resource path="res://entities/bullets/sprites/bulletBlueSilver.png" type="Texture" id=2]

[sub_resource type="PhysicsMaterial" id=1]
friction = 0.0

[sub_resource type="CapsuleShape2D" id=2]
radius = 3.09087
height = 4.42302

[node name="Bullet" type="RigidBody2D"]
mass = 1.02041e-005
physics_material_override = SubResource( 1 )
gravity_scale = 0.0
contacts_reported = 1000
contact_monitor = true
script = ExtResource( 1 )

[node name="spr_bullet" type="Sprite" parent="."]
scale = Vector2( 0.1, 0.3 )
texture = ExtResource( 2 )

[node name="area" type="CollisionShape2D" parent="."]
shape = SubResource( 2 )

