[gd_scene load_steps=4 format=2]

[ext_resource path="res://entities/players/tools/healing_syringe/healing_syringe.gd" type="Script" id=1]
[ext_resource path="res://entities/players/guns/hand.png" type="Texture" id=2]
[ext_resource path="res://entities/players/tools/healing_syringe/syringe.png" type="Texture" id=3]

[node name="healing_syringe" type="Node2D"]
script = ExtResource( 1 )

[node name="spr_hand" type="Sprite" parent="."]
texture = ExtResource( 2 )

[node name="spr_tool" type="Sprite" parent="."]
position = Vector2( 23.66, -1.5 )
scale = Vector2( 0.1, 0.1 )
texture = ExtResource( 3 )

