[gd_scene load_steps=4 format=2]

[ext_resource path="res://entities/players/guns/healing_rifle/healing_rifle.gd" type="Script" id=1]
[ext_resource path="res://entities/players/guns/hand.png" type="Texture" id=2]
[ext_resource path="res://entities/players/guns/rifle/rifle.png" type="Texture" id=3]

[node name="healing_rifle" type="Node2D"]
script = ExtResource( 1 )

[node name="spr_hand" type="Sprite" parent="."]
texture = ExtResource( 2 )

[node name="spr_gun" type="Sprite" parent="."]
modulate = Color( 1, 0, 0, 1 )
position = Vector2( 17.6689, -1.15048 )
texture = ExtResource( 3 )

[node name="bullet_pos" type="Position2D" parent="."]
position = Vector2( 33.269, -0.967999 )

